{
	"languageserver": {
		"go": {
			"command": "gopls",
			"rootPatterns": [
				"go.mod"
			],
			"trace.server": "verbose",
			"filetypes": [
				"go"
			]
		},
		"bash": {
			"command": "bash-language-server",
			"args": [
				"start"
			],
			"filetypes": [
				"sh",
				"inc"
			],
			"ignoredRootPaths": [
				"~"
			]
		}
	},
	"coc.preferences.formatOnSave": true,
	"coc.preferences.extensionUpdateCheck": "daily",
	"codeLens.enable": true,
	"go.goplsOptions": {
		"codelenses": {
			"run_govulncheck": true,
			"upgrade_dependency": true,
			"vendor": true
		},
		"analyses": {
			"asmdecl": true,
			"assign": true,
			"atomic": true,
			"atomicalign": true,
			"bools": true,
			"buildtag": true,
			"cgocall": true,
			"composites": true,
			"copylocks": true,
			"deepequalerrors": true,
			"defers": true,
			"deprecated": true,
			"directive": true,
			"embed": true,
			"errorsas": true,
			"fieldalignment": true,
			"fillreturns": true,
			"fillstruct": true,
			"httpresponse": true,
			"ifaceassert": true,
			"infertypeargs": true,
			"loopclosure": true,
			"lostcancel": true,
			"nilfunc": true,
			"nilness": true,
			"nonewvars": true,
			"noresultvalues": true,
			"printf": true,
			"shadow": true,
			"shift": true,
			"simplifycompositelit": true,
			"simplifyrange": true,
			"simplifyslice": true,
			"slog": true,
			"sortslice": true,
			"stdmethods": true,
			"stringintconv": true,
			"structtag": true,
			"stubmethods": true,
			"testinggoroutine": true,
			"tests": true,
			"timeformat": true,
			"undeclaredname": true,
			"unmarshal": true,
			"unreachable": true,
			"unsafeptr": true,
			"unusedparams": true,
			"unusedresult": true,
			"unusedvariable": true,
			"unusedwrite": true,
			"useany": true
		}
	},
	"go.goplsUseDaemon": false,
	"go.checkForUpdates": "install",
	"diagnostic.floatConfig": {
		"border": true
	},
	"diagnostic.checkCurrentLine": true,
	"yaml.enable": true,
	"yaml.validate": true,
	"yaml.completion": true,
	"yaml.schemaStore.enable": true,
	"yaml.schemas": {
		"kubernetes": [
			"/*.k8s.yaml"
		],
		"https://json.schemastore.org/kustomization.json": [
			"kustomization.yaml"
		],
		"https://raw.githubusercontent.com/GoogleContainerTools/skaffold/master/docs/content/en/schemas/v2beta8.json": [
			"skaffold.yaml"
		],
		"https://json.schemastore.org/composer": [
			"docker-compose.workspace.yml*"
		]
	},
	"yaml.format.enable": true,
	"suggest.floatConfig": {
		"border": true
	},
	"hover.floatConfig": {
		"border": true
	},
	"signature.floatConfig": {
		"border": true
	},
	"colors.enable": true,
	"go.goplsEnv": {
		"GOPACKAGESDRIVER": ""
	}
}
